D:\AGH\Automatyzacja testów oprogramowania I\07.03.2021\rest-api-tests-Adam-Sliwka\src\test\java\TestVatTaxpayerRegister_Nip.java
D:\AGH\Automatyzacja testów oprogramowania I\07.03.2021\rest-api-tests-Adam-Sliwka\src\test\java\TestVatTaxpayerRegister_Account.java
D:\AGH\Automatyzacja testów oprogramowania I\07.03.2021\rest-api-tests-Adam-Sliwka\src\test\java\TestValidPesel.java
D:\AGH\Automatyzacja testów oprogramowania I\07.03.2021\rest-api-tests-Adam-Sliwka\src\test\java\TestVatTaxpayerRegister_Additional.java
D:\AGH\Automatyzacja testów oprogramowania I\07.03.2021\rest-api-tests-Adam-Sliwka\src\test\java\TestVatTaxpayerRegister_Regon.java
D:\AGH\Automatyzacja testów oprogramowania I\07.03.2021\rest-api-tests-Adam-Sliwka\src\test\java\TestInvalidPesel.java
